{
    "ctrlCfg" : {
        "type": "bdaq",
        "cfg" : {
            "ipAddr"      : "192.168.10.12",
            "udpPort"     : 4660,
            "tcpPort"     : 24,
            "rxWaitTime"  : 15,
            "softwareAZ"  : true,
            "configSi570" : false,
            "rxAddr"      : "0x6000",
            "i2cAddr"     : "0x1000",
            "cmdAddr"     : "0x9000",
            "controlAddr" : "0x2100"
        }
    }
}
